<?xml version="1.0" encoding="UTF-8"?>
<robot generator="Robot 4.1.1 (Python 3.9.7 on darwin)" generated="20220309 11:16:04.617" rpa="false" schemaversion="2">
<suite id="s1" name="TestSitePractice" source="/Users/alefecardozo/RobotCI/robotframeworkavancado/TestSitePractice.robot">
<test id="s1-t1" name="Caso de Teste com PO 01: Remover Produtos do Carrinho">
<kw name="Abrir navegador" library="Resource" type="SETUP">
<kw name="Open Browser" library="SeleniumLibrary">
<arg>about:blank</arg>
<arg>${BROWSER}</arg>
<arg>options=${OPTIONS}</arg>
<doc>Opens a new browser instance to the optional ``url``.</doc>
<msg timestamp="20220309 11:16:04.828" level="INFO">Opening browser 'firefox' to base url 'about:blank'.</msg>
<msg timestamp="20220309 11:16:04.835" level="INFO">Firefox driver log is always forced to to: /Users/alefecardozo/RobotCI/robotframeworkavancado/results/geckodriver-1.log</msg>
<status status="PASS" starttime="20220309 11:16:04.828" endtime="20220309 11:16:16.045"/>
</kw>
<kw name="Maximize Browser Window" library="SeleniumLibrary">
<doc>Maximizes current browser window.</doc>
<status status="PASS" starttime="20220309 11:16:16.045" endtime="20220309 11:16:16.049"/>
</kw>
<status status="PASS" starttime="20220309 11:16:04.827" endtime="20220309 11:16:16.050"/>
</kw>
<kw name="Acessar a página home do site" library="Home">
<kw name="Go To" library="SeleniumLibrary">
<arg>${HOME_URL}</arg>
<doc>Navigates the current browser window to the provided ``url``.</doc>
<msg timestamp="20220309 11:16:16.051" level="INFO">Opening url 'http://automationpractice.com'</msg>
<status status="PASS" starttime="20220309 11:16:16.051" endtime="20220309 11:16:27.577"/>
</kw>
<kw name="Wait Until Element Is Visible" library="SeleniumLibrary">
<arg>${HOME_TOPMENU}</arg>
<doc>Waits until the element ``locator`` is visible.</doc>
<status status="PASS" starttime="20220309 11:16:27.578" endtime="20220309 11:16:27.637"/>
</kw>
<kw name="Title Should Be" library="SeleniumLibrary">
<arg>${HOME_TITLE}</arg>
<doc>Verifies that the current page title equals ``title``.</doc>
<msg timestamp="20220309 11:16:27.640" level="INFO">Page title is 'My Store'.</msg>
<status status="PASS" starttime="20220309 11:16:27.637" endtime="20220309 11:16:27.640"/>
</kw>
<status status="PASS" starttime="20220309 11:16:16.050" endtime="20220309 11:16:27.640"/>
</kw>
<kw name="Adicionar o produto &quot;t-shirt&quot; no carrinho" library="Home" sourcename="Adicionar o produto &quot;${PRODUTO}&quot; no carrinho">
<kw name="Digitar o nome do produto &quot;${PRODUTO}&quot; no campo de pesquisa" library="Home" sourcename="Digitar o nome do produto &quot;${PRODUTO}&quot; no campo de pesquisa">
<kw name="Input Text" library="SeleniumLibrary">
<arg>${HOME_FIELD_PESQUISAR}</arg>
<arg>${PRODUTO}</arg>
<doc>Types the given ``text`` into the text field identified by ``locator``.</doc>
<msg timestamp="20220309 11:16:27.642" level="INFO">Typing text 't-shirt' into text field 'name=search_query'.</msg>
<status status="PASS" starttime="20220309 11:16:27.641" endtime="20220309 11:16:27.691"/>
</kw>
<status status="PASS" starttime="20220309 11:16:27.641" endtime="20220309 11:16:27.691"/>
</kw>
<kw name="Clicar no botão pesquisar" library="Home">
<kw name="Click Element" library="SeleniumLibrary">
<arg>${HOME_BTN_PESQUISAR}</arg>
<doc>Click the element identified by ``locator``.</doc>
<msg timestamp="20220309 11:16:27.692" level="INFO">Clicking element 'name=submit_search'.</msg>
<status status="PASS" starttime="20220309 11:16:27.692" endtime="20220309 11:16:29.391"/>
</kw>
<status status="PASS" starttime="20220309 11:16:27.691" endtime="20220309 11:16:29.392"/>
</kw>
<kw name="Clicar no botão &quot;Add to Cart&quot; do produto" library="Home">
<kw name="Wait Until Element Is Visible" library="SeleniumLibrary">
<arg>${HOME_PRODUCT}</arg>
<doc>Waits until the element ``locator`` is visible.</doc>
<status status="PASS" starttime="20220309 11:16:29.393" endtime="20220309 11:16:29.421"/>
</kw>
<kw name="Click Element" library="SeleniumLibrary">
<arg>${HOME_PRODUCT}</arg>
<doc>Click the element identified by ``locator``.</doc>
<msg timestamp="20220309 11:16:29.422" level="INFO">Clicking element 'xpath=//*[@id="center_column"]//img[@alt="Faded Short Sleeve T-shirts"]'.</msg>
<status status="PASS" starttime="20220309 11:16:29.422" endtime="20220309 11:16:33.590"/>
</kw>
<kw name="Wait Until Element Is Visible" library="SeleniumLibrary">
<arg>${HOME_BTN_ADDCART}</arg>
<doc>Waits until the element ``locator`` is visible.</doc>
<status status="PASS" starttime="20220309 11:16:33.590" endtime="20220309 11:16:33.619"/>
</kw>
<kw name="Click Button" library="SeleniumLibrary">
<arg>${HOME_BTN_ADDCART}</arg>
<doc>Clicks the button identified by ``locator``.</doc>
<msg timestamp="20220309 11:16:33.620" level="INFO">Clicking button 'xpath=//*[@id="add_to_cart"]/button'.</msg>
<status status="PASS" starttime="20220309 11:16:33.620" endtime="20220309 11:16:33.882"/>
</kw>
<status status="PASS" starttime="20220309 11:16:29.392" endtime="20220309 11:16:33.882"/>
</kw>
<kw name="Clicar no botão &quot;Proceed to checkout&quot;" library="Home">
<kw name="Wait Until Element Is Visible" library="SeleniumLibrary">
<arg>${HOME_BTN_CHECKOUT}</arg>
<doc>Waits until the element ``locator`` is visible.</doc>
<status status="PASS" starttime="20220309 11:16:33.884" endtime="20220309 11:16:35.036"/>
</kw>
<kw name="Click Element" library="SeleniumLibrary">
<arg>${HOME_BTN_CHECKOUT}</arg>
<doc>Click the element identified by ``locator``.</doc>
<msg timestamp="20220309 11:16:35.037" level="INFO">Clicking element 'xpath=//*[@id="layer_cart"]//a[@title="Proceed to checkout"]'.</msg>
<status status="PASS" starttime="20220309 11:16:35.037" endtime="20220309 11:16:38.120"/>
</kw>
<status status="PASS" starttime="20220309 11:16:33.883" endtime="20220309 11:16:38.120"/>
</kw>
<status status="PASS" starttime="20220309 11:16:27.640" endtime="20220309 11:16:38.121"/>
</kw>
<kw name="Excluir o produto do carrinho" library="Carrinho">
<kw name="Title Should Be" library="SeleniumLibrary">
<arg>${CARRINHO_TITLE}</arg>
<doc>Verifies that the current page title equals ``title``.</doc>
<msg timestamp="20220309 11:16:38.132" level="INFO">Page title is 'Order - My Store'.</msg>
<status status="PASS" starttime="20220309 11:16:38.123" endtime="20220309 11:16:38.132"/>
</kw>
<kw name="Wait Until Element Is Visible" library="SeleniumLibrary">
<arg>${CARRINHO_DELETAR}</arg>
<arg>10</arg>
<doc>Waits until the element ``locator`` is visible.</doc>
<status status="PASS" starttime="20220309 11:16:38.133" endtime="20220309 11:16:38.167"/>
</kw>
<kw name="Click Element" library="SeleniumLibrary">
<arg>${CARRINHO_DELETAR}</arg>
<doc>Click the element identified by ``locator``.</doc>
<msg timestamp="20220309 11:16:38.168" level="INFO">Clicking element 'xpath=//*[@class="cart_quantity_delete"]'.</msg>
<status status="PASS" starttime="20220309 11:16:38.167" endtime="20220309 11:16:38.399"/>
</kw>
<status status="PASS" starttime="20220309 11:16:38.122" endtime="20220309 11:16:38.399"/>
</kw>
<kw name="Conferir se o carrinho fica vazio" library="Carrinho">
<kw name="Wait Until Element Is Visible" library="SeleniumLibrary">
<arg>${CARRINHO_MSG}</arg>
<doc>Waits until the element ``locator`` is visible.</doc>
<status status="PASS" starttime="20220309 11:16:38.401" endtime="20220309 11:16:40.919"/>
</kw>
<kw name="Element Text Should Be" library="SeleniumLibrary">
<arg>${CARRINHO_MSG}</arg>
<arg>Your shopping cart is empty.</arg>
<doc>Verifies that element ``locator`` contains exact the text ``expected``.</doc>
<msg timestamp="20220309 11:16:40.920" level="INFO">Verifying element 'xpath=//*[@id="center_column"]/p[@class='alert alert-warning']' contains exact text 'Your shopping cart is empty.'.</msg>
<status status="PASS" starttime="20220309 11:16:40.920" endtime="20220309 11:16:40.940"/>
</kw>
<kw name="Capture Page Screenshot" library="SeleniumLibrary">
<doc>Takes a screenshot of the current page and embeds it into a log file.</doc>
<msg timestamp="20220309 11:16:41.004" level="INFO" html="true">&lt;/td&gt;&lt;/tr&gt;&lt;tr&gt;&lt;td colspan="3"&gt;&lt;a href="selenium-screenshot-1.png"&gt;&lt;img src="selenium-screenshot-1.png" width="800px"&gt;&lt;/a&gt;</msg>
<status status="PASS" starttime="20220309 11:16:40.941" endtime="20220309 11:16:41.004"/>
</kw>
<status status="PASS" starttime="20220309 11:16:38.400" endtime="20220309 11:16:41.004"/>
</kw>
<kw name="Fechar navegador" library="Resource" type="TEARDOWN">
<kw name="Close Browser" library="SeleniumLibrary">
<doc>Closes the current browser.</doc>
<status status="PASS" starttime="20220309 11:16:41.006" endtime="20220309 11:16:41.562"/>
</kw>
<status status="PASS" starttime="20220309 11:16:41.005" endtime="20220309 11:16:41.563"/>
</kw>
<status status="PASS" starttime="20220309 11:16:04.826" endtime="20220309 11:16:41.563"/>
</test>
<status status="PASS" starttime="20220309 11:16:04.620" endtime="20220309 11:16:41.564"/>
</suite>
<statistics>
<total>
<stat pass="1" fail="0" skip="0">All Tests</stat>
</total>
<tag>
</tag>
<suite>
<stat pass="1" fail="0" skip="0" id="s1" name="TestSitePractice">TestSitePractice</stat>
</suite>
</statistics>
<errors>
</errors>
</robot>
